Journal (reproducible report)
…
  separate(col    = category,
           into   = c("category.1", "category.2", "category.3"),
           sep    = " - ") %>%
  
  mutate(total.price = price * quantity)

1.5 Filtering and getting Business insights

1.5.1 Select Columns

sales_by_loc_tbl <- bike_orderlines_wrangled_tbl %>% select(location, total.price) 
sales_by_loc_tbl

## # A tibble: 15,644 x 2
##    location                     total.price
##    <chr>                              <dbl>
##  1 Hamburg, Hamburg                    3119
##  2 Hamburg, Hamburg                    5359
##  3 Bremen, Bremen                      2729
##  4 Bremen, Bremen                      1749
##  5 Stuttgart, Baden-Württemberg        1219
##  6 Stuttgart, Baden-Württemberg        1359
##  7 Stuttgart, Baden-Württemberg        2529
##  8 Stuttgart, Baden-Württemberg        1559
##  9 Stuttgart, Baden-Württemberg        3899
## 10 Augsburg, Bavaria                   6629
## # ... with 15,634 more rows

1.5.2 separate location into city & state and summarise sales

sales_by_city_state_tbl <-sales_by_loc_tbl %>% separate(col=location , into=c("city","state"),sep=",",convert=T) %>% group_by(state,city) %>% summarise(sales = sum(total.price))

1.5.3 Get highest sales state by sorting in descending order

sales_by_state_tbl <-sales_by_city_state_tbl %>% select(state , sales)
sales_by_state_tbl[order(-sales_by_state_tbl$sales),]

## # A tibble: 30 x 2
## # Groups:   state [12]
##    state                        sales
##    <chr>                        <dbl>
##  1 " Bremen"                 10653499
##  2 " North Rhine-Westphalia"  7152089
##  3 " North Rhine-Westphalia"  4496391
##  4 " Hamburg"                 3874756
##  5 " Bavaria"                 3629885
##  6 " Lower Saxony"            2886140
##  7 " Schleswig-Holstein"      2245588
##  8 " North Rhine-Westphalia"  2060323
##  9 " Baden-Württemberg"       2035536
## 10 " Bavaria"                 1911938
## # ... with 20 more rows
…
library(scales)
library(tidyverse)
library(ggplot2)
library(lubridate)
library(readxl)
library(ggthemes)
library(dplyr)
library(maps)

Task 1

covid_data_tbl <- read_csv("https://opendata.ecdc.europa.eu/covid19/casedistribution/csv")
covid_data_tbl

## # A tibble: 9,577 x 10
##    dateRep year_week cases_weekly deaths_weekly countriesAndTer~ geoId
##    <chr>   <chr>            <dbl>         <dbl> <chr>            <chr>
##  1 04/01/~ 2020-53            902            60 Afghanistan      AF   
##  2 28/12/~ 2020-52           1994            88 Afghanistan      AF   
##  3 21/12/~ 2020-51            740           111 Afghanistan      AF   
##  4 14/12/~ 2020-50           1757            71 Afghanistan      AF   
##  5 07/12/~ 2020-49           1672           137 Afghanistan      AF   
##  6 30/11/~ 2020-48           1073            68 Afghanistan      AF   
##  7 23/11/~ 2020-47           1368            69 Afghanistan      AF   
##  8 16/11/~ 2020-46           1164            61 Afghanistan      AF   
##  9 09/11/~ 2020-45            606            24 Afghanistan      AF   
## 10 02/11/~ 2020-44            800            27 Afghanistan      AF   
## # ... with 9,567 more rows, and 4 more variables: countryterritoryCode <chr>,
## #   popData2019 <dbl>, continentExp <chr>,
## #   `notification_rate_per_100000_population_14-days` <dbl>
…
Task 2

#World data table:

#importing data

covid_data_tbl <- read_csv("https://opendata.ecdc.europa.eu/covid19/casedistribution/csv")
covid_data_tbl

## # A tibble: 9,577 x 10
##    dateRep year_week cases_weekly deaths_weekly countriesAndTer~ geoId
##    <chr>   <chr>            <dbl>         <dbl> <chr>            <chr>
##  1 04/01/~ 2020-53            902            60 Afghanistan      AF   
##  2 28/12/~ 2020-52           1994            88 Afghanistan      AF   
##  3 21/12/~ 2020-51            740           111 Afghanistan      AF   
##  4 14/12/~ 2020-50           1757            71 Afghanistan      AF   
##  5 07/12/~ 2020-49           1672           137 Afghanistan      AF   
##  6 30/11/~ 2020-48           1073            68 Afghanistan      AF   
##  7 23/11/~ 2020-47           1368            69 Afghanistan      AF   
##  8 16/11/~ 2020-46           1164            61 Afghanistan      AF   
##  9 09/11/~ 2020-45            606            24 Afghanistan      AF   
## 10 02/11/~ 2020-44            800            27 Afghanistan      AF   
## # ... with 9,567 more rows, and 4 more variables: countryterritoryCode <chr>,
## #   popData2019 <dbl>, continentExp <chr>,
## #   `notification_rate_per_100000_population_14-days` <dbl>
…
  ))
covid_data_tbl%>%mutate(across(countriesAndTerritories, str_replace_all, "_", " ")) %>%
  mutate(countriesAndTerritories = case_when(
    
    countriesAndTerritories == "United Kingdom" ~ "United_Kingdom",
    countriesAndTerritories == "United_States_of_America" ~ "United States of America",
    countriesAndTerritories == "Czechia"~"Czechia",
    TRUE ~ countriesAndTerritories
    
  ))

## # A tibble: 9,577 x 10
##    dateRep year_week cases_weekly deaths_weekly countriesAndTer~ geoId
##    <chr>   <chr>            <dbl>         <dbl> <chr>            <chr>
##  1 04/01/~ 2020-53            902            60 Afghanistan      AF   
##  2 28/12/~ 2020-52           1994            88 Afghanistan      AF   
##  3 21/12/~ 2020-51            740           111 Afghanistan      AF   
##  4 14/12/~ 2020-50           1757            71 Afghanistan      AF   
##  5 07/12/~ 2020-49           1672           137 Afghanistan      AF   
##  6 30/11/~ 2020-48           1073            68 Afghanistan      AF   
##  7 23/11/~ 2020-47           1368            69 Afghanistan      AF   
##  8 16/11/~ 2020-46           1164            61 Afghanistan      AF   
##  9 09/11/~ 2020-45            606            24 Afghanistan      AF   
## 10 02/11/~ 2020-44            800            27 Afghanistan      AF   
## # ... with 9,567 more rows, and 4 more variables: countryterritoryCode <chr>,
## #   popData2019 <dbl>, continentExp <chr>,
## #   `notification_rate_per_100000_population_14-days` <dbl>
…
#manipulation of covid data table
covid_modified_data_tbl<- covid_data_tbl%>%  separate(col    = dateRep,
           into   = c("day","month", "year"),
           sep    = "/") %>% 
  select(day,month,year,countriesAndTerritories,deaths_weekly,popData2019)%>%
  group_by(year,countriesAndTerritories,popData2019)%>%
  summarise(total_death=sum(deaths_weekly))%>%
  ungroup()%>%
  mutate(mortality_rate=(total_death/popData2019)*100)

#merging data between 2 tables 
All_data_tbl<-left_join(covid_modified_data_tbl,world_map,by="countriesAndTerritories")%>%filter(year==2020)
All_data_tbl

## # A tibble: 84,454 x 8
##    year  countriesAndTer~ popData2019 total_death mortality_rate  long   lat
##    <chr> <chr>                  <dbl>       <dbl>          <dbl> <dbl> <dbl>
##  1 2020  Afghanistan         38041757        2170        0.00570  74.9  37.2
##  2 2020  Afghanistan         38041757        2170        0.00570  74.8  37.2
##  3 2020  Afghanistan         38041757        2170        0.00570  74.8  37.2
##  4 2020  Afghanistan         38041757        2170        0.00570  74.7  37.3
##  5 2020  Afghanistan         38041757        2170        0.00570  74.7  37.3
##  6 2020  Afghanistan         38041757        2170        0.00570  74.7  37.3
##  7 2020  Afghanistan         38041757        2170        0.00570  74.6  37.2
##  8 2020  Afghanistan         38041757        2170        0.00570  74.4  37.2
##  9 2020  Afghanistan         38041757        2170        0.00570  74.4  37.1
## 10 2020  Afghanistan         38041757        2170        0.00570  74.5  37.1
## # ... with 84,444 more rows, and 1 more variable: group <dbl>
…
